100,10000
339,342
1629,1514
697,696
1299,1433
1613,1762
36,40
1737,1635
473,442
1859,1899
2055,1960
362,378
1104,1177
1880,1970
1349,1434
1545,1691
132,139
341,371
1430,1350
1878,1775
1870,1980
1536,1651
818,814
289,282
1690,1573
1437,1587
310,302
53,56
720,726
1707,1820
258,269
1842,1680
757,842
1642,1730
1149,1243
1970,1794
749,775
1904,1810
2,3
967,970
1310,1261
1004,997
1295,1192
1056,1036
51,52
1320,1453
1580,1673
480,440
604,624
1766,1813
1198,1326
1762,1637
2046,1902
315,323
714,746
434,471
1461,1366
1652,1511
1876,1785
906,1002
1483,1560
1355,1403
510,513
2114,1958
1479,1505
1618,1538
1472,1378
310,315
1478,1493
970,1066
43,40
1231,1172
1792,1972
870,956
1484,1541
1049,1014
56,55
814,793
978,985
1215,1311
720,737
210,204
460,492
1798,1961
1944,1952
208,204
1836,1872
882,806
239,234
141,136
49,49
1352,1363
915,883
1318,1259
72,70
937,886
1783,1843
1253,1319
1268,1375
1144,1234
878,818
